Exploratory Analysis Project
…
library(dplyr)
getwd()

## [1] "/stor/home/aeq242/R/website/content/project"

library("readr")
Pollution <- read.csv("/stor/home/aeq242/SDS348_Fall2020/Data/pollution_us_2000_2016.csv")
Energy <- read.csv("/stor/home/aeq242/Energy Census and Economic Data US 2010-2014.csv")

Tidying and Rearranging Datasets

## # A tibble: 38,426,542 x 31
##        X State.Code County.Code Site.Num Address County City  Date.Local
##    <int>      <int>       <int>    <int> <fct>   <fct>  <fct> <fct>     
##  1     0          4          13     3002 1645 E… Maric… Phoe… 2000-01-01
##  2     0          4          13     3002 1645 E… Maric… Phoe… 2000-01-01
##  3     0          4          13     3002 1645 E… Maric… Phoe… 2000-01-01
##  4     0          4          13     3002 1645 E… Maric… Phoe… 2000-01-01
##  5     0          4          13     3002 1645 E… Maric… Phoe… 2000-01-01
##  6     0          4          13     3002 1645 E… Maric… Phoe… 2000-01-01
##  7     0          4          13     3002 1645 E… Maric… Phoe… 2000-01-01
##  8     0          4          13     3002 1645 E… Maric… Phoe… 2000-01-01
##  9     0          4          13     3002 1645 E… Maric… Phoe… 2000-01-01
## 10     0          4          13     3002 1645 E… Maric… Phoe… 2000-01-01
## # … with 38,426,532 more rows, and 23 more variables: NO2.Units <fct>,
## #   NO2.Mean <dbl>, NO2.1st.Max.Value <dbl>, NO2.AQI <int>, O3.Units <fct>,
## #   O3.Mean <dbl>, O3.1st.Max.Value <dbl>, O3.1st.Max.Hour <int>, O3.AQI <int>,
## #   SO2.Units <fct>, SO2.Mean <dbl>, SO2.1st.Max.Value <dbl>,
## #   SO2.1st.Max.Hour <int>, SO2.AQI <dbl>, CO.Units <fct>, CO.Mean <dbl>,
## #   CO.1st.Max.Value <dbl>, CO.1st.Max.Hour <int>, CO.AQI <dbl>, `0` <fct>,
## #   `11` <fct>, NO2.1st.Max.Hour <chr>, State <fct>

## # A tibble: 104 x 193
##    StateCodes Region Division Coast TotalC2010 TotalC2011 TotalC2012 TotalC2013
##    <fct>       <int>    <int> <int>      <int>      <int>      <int>      <int>
##  1 AL              3        6     1    1931522    1905207    1879716    1919365
##  2 AL              3        6     1    1931522    1905207    1879716    1919365
##  3 AK              4        9     1     653221     653637     649341     621107
##  4 AK              4        9     1     653221     653637     649341     621107
##  5 AZ              4        8     0    1383531    1424944    1395839    1414383
##  6 AZ              4        8     0    1383531    1424944    1395839    1414383
##  7 AR              3        7     0    1120632    1122544    1067642    1096438
##  8 AR              3        7     0    1120632    1122544    1067642    1096438
##  9 CA              4        9     1    7760629    7777115    7564063    7665241
## 10 CA              4        9     1    7760629    7777115    7564063    7665241
## # … with 94 more rows, and 185 more variables: TotalC2014 <int>,
## #   TotalP2010 <int>, TotalP2011 <int>, TotalP2012 <int>, TotalP2013 <int>,
## #   TotalP2014 <int>, TotalE2010 <dbl>, TotalE2011 <dbl>, TotalE2012 <dbl>,
## #   TotalE2013 <dbl>, TotalE2014 <dbl>, TotalPrice2010 <dbl>,
## #   TotalPrice2011 <dbl>, TotalPrice2012 <dbl>, TotalPrice2013 <dbl>,
## #   TotalPrice2014 <dbl>, TotalC10.11 <dbl>, TotalC11.12 <dbl>,
## #   TotalC12.13 <dbl>, TotalC13.14 <dbl>, TotalP10.11 <dbl>, TotalP11.12 <dbl>,
## #   TotalP12.13 <dbl>, TotalP13.14 <dbl>, TotalE10.11 <dbl>, TotalE11.12 <dbl>,
## #   TotalE12.13 <dbl>, TotalE13.14 <dbl>, TotalPrice10.11 <dbl>,
…
##   State    City Date.Local  CO.Mean TotalP2014 Combined.Gasses
## 1 Texas El Paso 2014-11-29 1.083333   17597105        28.00985
## 2 Texas El Paso 2014-11-29 1.083333   17597105        27.90799
## 3 Texas El Paso 2014-01-07 1.067947   17597105        36.61239
## 4 Texas El Paso 2014-01-07 1.067947   17597105        36.84334
## 5 Texas El Paso 2014-12-01 1.025000   17597105        28.55328
## 6 Texas El Paso 2014-12-01 1.025000   17597105        28.47564

EPMean <- EnergyandPollution %>% group_by(State) %>% summarize(mean_CO = mean(CO.Mean, na.rm = T), mean_NO2 = mean(NO2.Mean, na.rm=T), mean_O3 = mean(O3.Mean, na.rm = T), mean_SO2 = mean(SO2.Mean, na.rm = T), mean_TotalP2014 = mean(TotalP2014, na.rm = T), mean_TotalC2014 = mean(TotalC2014, na.rm = T), mean_CoalC2014 = mean(CoalC2014, na.rm = T), mean_CoalP2014 = mean(CoalP2014, na.rm = T), mean_NatGasC2014 = mean(NatGasC2014, na.rm = T), mean_FossFuelC2014 = mean(FossFuelC2014, na.rm = T))

## `summarise()` ungrouping output (override with `.groups` argument)

EPMean

## # A tibble: 54 x 11
##    State mean_CO mean_NO2 mean_O3 mean_SO2 mean_TotalP2014 mean_TotalC2014
##    <fct>   <dbl>    <dbl>   <dbl>    <dbl>           <dbl>           <dbl>
##  1 Alab…   0.213     9.41  0.0246    1.03          1353725         1958221
##  2 Alas…   0.423    11.3   0.0128    6.08          1475129          603119
##  3 Ariz…   0.491    19.1   0.0250    1.36           635050         1422590
##  4 Arka…   0.422     9.75  0.0262    1.38          1454325         1114409
##  5 Cali…   0.447    13.7   0.0261    1.15          2413494         7620082
##  6 Colo…   0.443    19.6   0.0236    1.51          3041634         1477177
##  7 Conn…   0.251     8.99  0.0289    0.912          197271          750019
##  8 Coun…   0.854    20.3   0.0219    1.95              NaN             NaN
##  9 Dela…   0.262    11.6   0.0265    1.01             4189          274013
## 10 Dist…   0.790    17.7   0.0242    4.21              NaN             NaN
## # … with 44 more rows, and 4 more variables: mean_CoalC2014 <dbl>,
## #   mean_CoalP2014 <dbl>, mean_NatGasC2014 <dbl>, mean_FossFuelC2014 <dbl>

EnergyandPollution %>% group_by(State) %>% summarize(max_CO = max(CO.Mean, na.rm = T), max_NO2 = max(NO2.Mean, na.rm=T), max_O3 = max(O3.Mean, na.rm = T), max_SO2 = max(SO2.Mean, na.rm = T), max_TotalP2014 = max(TotalP2014, na.rm = T), max_TotalC2014 = max(TotalC2014, na.rm = T), max_CoalC2014 = max(CoalC2014, na.rm = T), max_CoalP2014 = max(CoalP2014, na.rm = T), max_NatGasC2014 = max(NatGasC2014, na.rm = T), max_FossFuelC2014 = max(FossFuelC2014, na.rm = T))

## `summarise()` ungrouping output (override with `.groups` argument)

## # A tibble: 54 x 11
##    State max_CO max_NO2 max_O3 max_SO2 max_TotalP2014 max_TotalC2014
##    <fct>  <dbl>   <dbl>  <dbl>   <dbl>          <dbl>          <dbl>
##  1 Alab…  0.706    58.6 0.0458    9.1         1353725        1958221
##  2 Alas…  2.03     49.8 0.0390   31.5         1475129         603119
##  3 Ariz…  3.58    140.  0.0632   19.4          635050        1422590
##  4 Arka…  1.59     33.7 0.0627   10.4         1454325        1114409
##  5 Cali…  7.51     98.1 0.0862   40.3         2413494        7620082
##  6 Colo…  2.48     92   0.0619   21.1         3041634        1477177
##  7 Conn…  1.25     53.4 0.0685   28.5          197271         750019
##  8 Coun…  6.53     75.1 0.0616   13.8            -Inf           -Inf
##  9 Dela…  0.85     36.5 0.0619    4.58           4189         274013
## 10 Dist…  3.53     65.2 0.0705   42.9            -Inf           -Inf
## # … with 44 more rows, and 4 more variables: max_CoalC2014 <dbl>,
## #   max_CoalP2014 <dbl>, max_NatGasC2014 <dbl>, max_FossFuelC2014 <dbl>

EnergyandPollution %>% group_by(State) %>% summarize(min_CO = min(CO.Mean, na.rm = T), min_NO2 = min(NO2.Mean, na.rm=T), min_O3 = min(O3.Mean, na.rm = T), min_SO2 = min(SO2.Mean, na.rm = T), min_TotalP2014 = min(TotalP2014, na.rm = T), min_TotalC2014 = min(TotalC2014, na.rm = T), min_CoalC2014 = min(CoalC2014, na.rm = T), min_CoalP2014 = min(CoalP2014, na.rm = T), min_NatGasC2014 = min(NatGasC2014, na.rm = T), min_FossFuelC2014 = min(FossFuelC2014, na.rm = T))

## `summarise()` ungrouping output (override with `.groups` argument)

## # A tibble: 54 x 11
##    State  min_CO min_NO2  min_O3 min_SO2 min_TotalP2014 min_TotalC2014
##    <fct>   <dbl>   <dbl>   <dbl>   <dbl>          <dbl>          <dbl>
##  1 Alab…  0.0133  1.72   0.      -0.15          1353725        1958221
##  2 Alas…  0.0858  0.558  0.       0.283         1475129         603119
##  3 Ariz…  0       0      5.00e-4 -0.0333         635050        1422590
##  4 Arka…  0       0.0417 4.20e-5  0             1454325        1114409
##  5 Cali… -0.4    -1.87   0.      -1.52          2413494        7620082
##  6 Colo… -0.196  -0.0952 0.      -1             3041634        1477177
##  7 Conn…  0.0292 -1.19   0.      -0.167          197271         750019
##  8 Coun…  0       1.91   0.       0                 Inf            Inf
##  9 Dela…  0.0661  0.833  8.30e-5  0                4189         274013
## 10 Dist… -0.1     0.0417 1.25e-4 -0.953             Inf            Inf
## # … with 44 more rows, and 4 more variables: min_CoalC2014 <dbl>,
## #   min_CoalP2014 <dbl>, min_NatGasC2014 <dbl>, min_FossFuelC2014 <dbl>

EnergyandPollution %>% group_by(State) %>% summarize(median_CO = median(CO.Mean, na.rm = T), median_NO2 = median(NO2.Mean, na.rm=T), median_O3 = median(O3.Mean, na.rm = T), median_SO2 = median(SO2.Mean, na.rm = T), median_TotalP2014 = median(TotalP2014, na.rm = T), median_TotalC2014 = median(TotalC2014, na.rm = T), median_CoalC2014 = median(CoalC2014, na.rm = T), median_CoalP2014 = median(CoalP2014, na.rm = T), median_NatGasC2014 = median(NatGasC2014, na.rm = T), median_FossFuelC2014 = median(FossFuelC2014, na.rm = T))

## `summarise()` ungrouping output (override with `.groups` argument)

## # A tibble: 54 x 11
##    State median_CO median_NO2 median_O3 median_SO2 median_TotalP20…
##    <fct>     <dbl>      <dbl>     <dbl>      <dbl>            <dbl>
##  1 Alab…     0.194       8.69    0.0246      0.633          1353725
##  2 Alas…     0.307       7.44    0.0112      4.16           1475129
##  3 Ariz…     0.388      17.9     0.0248      1.08            635050
##  4 Arka…     0.396       8.87    0.0260      1.21           1454325
##  5 Cali…     0.343      10.9     0.026       0.76           2413494
##  6 Colo…     0.383      18.9     0.0238      1.1            3041634
##  7 Conn…     0.208       7.42    0.0291      0.405           197271
##  8 Coun…     0.626      18.5     0.0212      1.17                NA
##  9 Dela…     0.233      10.1     0.0269      0.833             4189
## 10 Dist…     0.717      16.9     0.0236      3.42                NA
## # … with 44 more rows, and 5 more variables: median_TotalC2014 <dbl>,
## #   median_CoalC2014 <dbl>, median_CoalP2014 <dbl>, median_NatGasC2014 <dbl>,
## #   median_FossFuelC2014 <dbl>

EnergyandPollution %>% group_by(State) %>% summarize(distinct_CO = n_distinct(CO.Mean, na.rm = T), distinct_NO2 = n_distinct(NO2.Mean, na.rm=T), distinct_O3 = n_distinct(O3.Mean, na.rm = T), distinct_SO2 = n_distinct(SO2.Mean, na.rm = T), distinct_TotalP2014 = n_distinct(TotalP2014, na.rm = T), distinct_TotalC2014 = n_distinct(TotalC2014, na.rm = T), max_CoalC2014 = n_distinct(CoalC2014, na.rm = T), distinct_CoalP2014 = n_distinct(CoalP2014, na.rm = T), distinct_NatGasC2014 = n_distinct(NatGasC2014, na.rm = T), distinct_FossFuelC2014 = n_distinct(FossFuelC2014, na.rm = T))

## `summarise()` ungrouping output (override with `.groups` argument)

## # A tibble: 54 x 11
##    State distinct_CO distinct_NO2 distinct_O3 distinct_SO2 distinct_TotalP…
##    <fct>       <int>        <int>       <int>        <int>            <int>
##  1 Alab…         667          726         505          793                1
##  2 Alas…         615          478         351          845                1
##  3 Ariz…        3352         4621        1516         1964                1
##  4 Arka…        2170         1975         930         1285                1
##  5 Cali…       12923        19935        6755         5782                1
##  6 Colo…        1515         3768        1438         2049                1
##  7 Conn…        3182         2355        1557         2286                1
##  8 Coun…        1900         1734        1077         1638                0
##  9 Dela…         987          821         623          709                1
## 10 Dist…        2377         2522        1314         2881                0
## # … with 44 more rows, and 5 more variables: distinct_TotalC2014 <int>,
## #   max_CoalC2014 <int>, distinct_CoalP2014 <int>, distinct_NatGasC2014 <int>,
## #   distinct_FossFuelC2014 <int>

EnergyandPollution %>% group_by(State, City) %>% summarize(mean_CO = mean(CO.Mean, na.rm = T), max_CO = max(CO.Mean, na.rm= T))

## `summarise()` regrouping output by 'State' (override with `.groups` argument)

## # A tibble: 172 x 4
## # Groups:   State [54]
##    State      City              mean_CO max_CO
##    <fct>      <fct>               <dbl>  <dbl>
##  1 Alabama    Birmingham          0.213  0.706
##  2 Alaska     Fairbanks           0.423  2.03 
##  3 Arizona    Phoenix             0.582  3.58 
##  4 Arizona    Scottsdale          0.582  2.15 
##  5 Arizona    Tucson              0.307  1.36 
##  6 Arkansas   North Little Rock   0.422  1.59 
##  7 California Arden-Arcade        0.404  2.85 
##  8 California Bakersfield         0.826  2.26 
##  9 California Benicia             0.282  0.667
## 10 California Berkeley            0.308  1.19 
## # … with 162 more rows

library(tibble)
untidycor <- EnergyandPollution %>% filter(CO.Mean > 0 & str_detect(Date.Local, "2014") & TotalP2014 >= 1000000 & State!= "United State") %>% arrange(desc(TotalP2014), desc(CO.Mean))%>% select(State, City, Date.Local, CO.Mean, TotalP2014, CoalP2014, CoalC2014, FossFuelC2014, NO2.Mean, O3.Mean, SO2.Mean, NatGasC2014)
CorEP <- untidycor %>% select_if(is.numeric) %>% cor(use = "pair") 
cordata <- CorEP %>% as.data.frame %>% rownames_to_column("var1") %>% pivot_longer(-1, names_to = "var2", values_to = "correlation")
cordata

## # A tibble: 81 x 3
##    var1       var2          correlation
##    <chr>      <chr>               <dbl>
##  1 CO.Mean    CO.Mean            1     
##  2 CO.Mean    TotalP2014        -0.265 
##  3 CO.Mean    CoalP2014         -0.229 
##  4 CO.Mean    CoalC2014         -0.306 
##  5 CO.Mean    FossFuelC2014     -0.0836
##  6 CO.Mean    NO2.Mean           0.665 
##  7 CO.Mean    O3.Mean           -0.385 
##  8 CO.Mean    SO2.Mean           0.162 
##  9 CO.Mean    NatGasC2014       -0.0352
## 10 TotalP2014 CO.Mean           -0.265 
## # … with 71 more rows
…
